data	data	Argentina	Brazil	South_x0020_America_x0020__x0028_other_x0029_	Caribbean	Central_x0020_America	USA	Mexico	Canada	North_x0020_America_x0020__x0028_other_x0029_	European_x0020_Union	Eastern_x0020_Europe_x0020__x0028_non_x002D_EU_x0029_	Northern_x0020_Europe_x0020__x0028_non_x002D_EU_x0029_	Southern_x0020_Europe_x0020__x0028_non_x002D_EU_x0029_	Switzerland	Central_x0020_Asia	Iran	Russia	Western_x0020_Asia	China	Korea	Mongolia	Japan	India	South_x002D_Eastern_x0020_Asia	Southern_x0020_Asia_x0020__x0028_other_x0029_	Eastern_x0020_Africa	Middle_x0020_Africa	Southern_x0020_Africa	Western_x0020_Africa	Algeria	Egypt	Morocco	Northern_x0020_Africa_x0020__x0028_other_x0029_	Australia_x0020_and_x0020_New_x0020_Zealand	Melanesia	Polynesia	
1	Argentina	0	3370038	702597	19936	0	0	0	0	0	2333	0	0	0	1472	0	291398	0	92778	0	0	0	0	0	17000	0	228410	13411	179072	199562	0	0	0	0	0	0	0
2	Brazil	0	0	676	0	0	125733	0	0	0	236	0	0	0	1	0	0	0	25000	0	0	0	0	0	25000	55000	52950	0	50146	7	22500	27500	0	0	0	0	0
3	South_x0020_America_x0020__x0028_other_x0029_	22505	1045225	0	3	0	47	0	0	0	69	0	0	0	0	0	0	0	9733	0	0	0	3	0	0	0	0	32266	0	23485	0	0	0	0	0	0	0
4	Caribbean	0	0	0	0	176	0	0	0	0	0	0	0	0	0	0	0	0	0	0	0	0	0	0	0	0	0	0	0	0	0	0	0	0	0	0	0
5	Central_x0020_America	0	0	0	0	0	0	0	0	0	0	0	0	0	0	0	0	0	0	0	0	0	0	0	0	0	0	0	0	0	0	0	0	0	0	0	0
6	USA	0	195308	1925471	1192879	1314471	0	1925767	65885	0	546144	9	5	0	0	0	231483	0	1075733	2560428	1108894	25000	3036042	520	2789191	272892	626272	24189	49281	2952538	122885	681728	128604	34466	21	0	0
7	Mexico	0	0	34133	0	23616	12923	0	0	0	412112	0	1	0	0	0	0	0	0	0	0	0	0	1	0	0	1	0	0	0	610669	0	0	42860	0	0	0
8	Canada	0	277467	2635018	285513	237	2341481	841972	0	0	2081982	172	89	0	49919	0	691044	0	3159348	299788	178263	0	981923	0	1477196	1679377	0	72125	85729	607470	369500	135025	669879	506250	2225	0	0
9	North_x0020_America_x0020__x0028_other_x0029_	0	0	0	0	0	0	0	0	0	0	0	0	0	0	0	0	0	0	0	0	0	0	0	0	0	0	0	0	0	0	0	0	0	0	0	0
10	European_x0020_Union	0	26141	17113	240303	0	127541	0	9	16	0	12953	314268	266581	286052	5	1162631	834	4058541	101560	17301	0	2188	5	66334	187844	1012363	676765	900862	1744427	4167440	2378958	1392113	1488117	1	0	0
11	Eastern_x0020_Europe_x0020__x0028_non_x002D_EU_x0029_	0	0	24200	6389	22375	42883	0	0	0	2449716	0	0	8370	110427	1551	323592	1274	1658136	31592	1774666	0	33219	3449	1549402	2369252	1033528	18456	53127	139283	73921	578643	71369	814987	649	0	0
12	Northern_x0020_Europe_x0020__x0028_non_x002D_EU_x0029_	0	0	0	0	0	0	0	0	0	1	0	0	0	0	0	0	0	0	0	0	0	0	0	0	0	0	0	1	0	0	0	0	0	0	0	0
13	Southern_x0020_Europe_x0020__x0028_non_x002D_EU_x0029_	0	0	0	0	0	0	0	0	0	153754	60	0	0	0	0	0	60	13406	0	0	2	0	0	0	0	22220	0	0	0	6440	0	0	94733	0	0	0
15	Switzerland	1	0	0	0	0	0	0	0	0	130	0	41	0	0	0	0	0	0	0	0	0	0	0	0	0	0	0	0	0	0	0	1	0	0	0	0
17	Central_x0020_Asia	0	0	0	0	0	0	0	0	0	278489	2000	21751	0	13979	0	735550	111647	773987	48	0	60	0	0	0	316106	0	0	0	0	0	0	0	0	0	0	0
18	Iran	0	0	0	0	0	0	0	0	0	0	0	0	0	0	0	0	0	0	0	0	0	0	0	0	0	0	0	0	0	0	0	0	0	0	0	0
19	Russia	0	0	172501	22507	0	2800	0	0	0	237296	201	11821	184299	277	101708	568011	0	7157049	0	68391	92025	9932	24575	508220	1117264	542158	16505	0	12770	11804	4868200	65202	1025679	0	0	0
20	Western_x0020_Asia	2	2	0	0	0	5	0	1	0	73908	0	0	0	1	10	0	0	0	0	0	0	120	0	0	25600	163	2	0	3	0	31625	0	51680	0	0	0
21	China	0	0	0	0	0	4	0	0	0	0	0	0	0	0	0	0	0	0	0	600	0	0	0	20	16200	0	0	0	0	0	0	0	0	0	0	0
22	Korea	0	0	0	0	0	0	0	0	0	0	0	0	0	0	0	0	0	0	0	0	0	0	0	0	0	0	0	0	0	0	0	0	0	0	0	0
23	Mongolia	0	0	0	0	0	0	0	0	0	0	0	0	0	0	0	0	0	0	0	0	0	0	0	0	0	0	0	0	0	0	0	0	0	0	0	0
24	Japan	0	0	0	0	0	0	0	0	0	0	0	0	0	0	0	0	0	0	0	0	0	0	0	0	0	0	0	0	0	0	0	0	0	0	0	0
25	India	0	0	0	2	0	23	0	0	0	0	0	0	0	0	0	0	0	0	0	0	0	0	0	0	5	0	0	0	0	0	0	0	0	0	0	0
26	South_x002D_Eastern_x0020_Asia	0	0	0	0	0	0	0	0	0	0	0	0	0	0	0	0	0	0	18	0	0	1	0	0	5	0	0	0	0	0	0	0	0	0	0	0
27	Southern_x0020_Asia_x0020__x0028_other_x0029_	0	0	0	0	0	408	0	0	0	0	0	0	0	0	0	0	0	0	0	0	0	0	21	1602	0	0	0	0	0	0	288	0	0	0	0	0
28	Eastern_x0020_Africa	0	0	0	0	0	20	0	0	0	0	0	0	0	0	0	0	0	54	0	0	0	33	0	0	0	0	10	3746	0	0	0	0	2	0	0	0
29	Middle_x0020_Africa	0	0	0	0	0	0	0	0	0	0	0	0	0	0	0	0	0	0	0	0	0	0	0	0	0	0	0	0	0	0	0	202	0	0	0	0
30	Southern_x0020_Africa	0	0	0	0	0	0	0	0	0	0	0	0	0	0	0	0	0	3	0	0	0	0	0	0	0	79325	0	0	0	0	0	0	0	0	0	0
31	Western_x0020_Africa	0	0	0	0	0	0	0	0	0	0	0	0	0	0	0	0	0	0	0	0	0	0	0	0	0	0	0	0	0	0	0	0	0	0	0	0
32	Algeria	0	0	0	0	0	0	0	0	0	0	0	0	0	0	0	0	0	0	0	0	0	0	0	0	0	0	0	0	0	0	0	0	0	0	0	0
33	Egypt	0	0	0	0	0	0	0	0	0	4	0	0	0	23	0	0	0	4515	0	0	0	0	0	0	0	0	0	0	0	81	0	0	0	0	0	0
34	Morocco	0	0	0	0	0	0	0	0	0	1	0	0	0	0	0	0	0	0	0	0	0	0	0	0	0	0	5	0	149	0	0	0	66	0	0	0
35	Northern_x0020_Africa_x0020__x0028_other_x0029_	0	0	0	0	0	0	0	0	0	0	0	0	0	0	0	0	0	0	0	0	0	0	0	0	0	0	0	0	0	0	0	0	0	0	0	0
36	Australia_x0020_and_x0020_New_x0020_Zealand	0	0	0	0	0	1	0	123	0	596543	0	0	0	0	0	1456509	0	2477451	1318752	814907	0	929378	61852	5355619	469126	213917	0	86480	356	39052	418812	0	851511	0	314800	637
38	Melanesia	0	0	0	0	0	1	0	0	0	0	0	0	0	0	0	0	0	0	0	0	0	0	0	0	0	0	0	0	0	0	0	0	0	0	0	0
39	Polynesia	0	0	0	0	0	0	0	0	0	0	0	0	0	0	0	0	0	0	0	0	0	0	0	0	0	0	0	0	0	0	0	0	0	0	0	0
