data	data	data	Argentina	Brazil	South_x0020_America_x0020__x0028_other_x0029_	Caribbean	Central_x0020_America	USA	Mexico	Canada	North_x0020_America_x0020__x0028_other_x0029_	European_x0020_Union	Eastern_x0020_Europe_x0020__x0028_non_x002D_EU_x0029_	Northern_x0020_Europe_x0020__x0028_non_x002D_EU_x0029_	Southern_x0020_Europe_x0020__x0028_non_x002D_EU_x0029_	Switzerland	Central_x0020_Asia	Iran	Russia	Western_x0020_Asia	China	Korea	Japan	India	South_x002D_Eastern_x0020_Asia	Southern_x0020_Asia_x0020__x0028_other_x0029_	Eastern_x0020_Africa	Middle_x0020_Africa	Southern_x0020_Africa	Western_x0020_Africa	Algeria	Egypt	Morocco	Northern_x0020_Africa_x0020__x0028_other_x0029_	Australia_x0020_and_x0020_New_x0020_Zealand	Micronesia	Melanesia	Polynesia	
1	14983016	Argentina	0	27906	2115667	27360	22023	7818	0	5	0	1625252	122	484	25	20	0	0	403	2265230	119474	226342	430	906	1244168	361	99902	14172	0	66570	756868	599825	427109	322757	0	0	0	0
2	42106369	Brazil	856	0	27575	0	51	389	0	0	0	1925820	0	9477	57030	0	0	1304642	0	68075	44	1587965	17409	0	0	0	0	438	0	3	0	0	31246	0	0	0	0	0
3	14114103	South_x0020_America_x0020__x0028_other_x0029_	29311	290345	0	28640	330	41619	0	113	0	47558	0	0	0	0	0	0	0	34	0	32	1419	0	133	0	0	0	38	171	0	0	0	0	0	0	1	0
4	2341919	Caribbean	0	0	900	0	0	0	0	0	0	2	0	0	0	0	0	0	0	0	0	0	0	0	0	0	0	0	0	0	0	0	0	0	0	0	0	0
5	4929811	Central_x0020_America	0	0	2256	0	0	23	531	0	0	0	0	0	0	0	0	0	0	0	0	0	0	0	0	0	0	0	0	0	0	0	0	0	0	0	0	0
6	300224948	USA	2011	560	3077397	1643763	2164133	0	5658540	2050390	20	124271	1944	5413	4055	341	0	64075	61447	3388227	9194296	4392105	15315861	171	119879	4688	170111	16223	61041	10790	1168601	3160255	742226	591601	3445	0	9	4628
7	27329293	Mexico	3	0	4488	0	281	2270	0	1	0	15	0	0	0	0	0	0	0	0	0	0	0	0	0	0	0	0	0	0	0	0	0	0	0	0	0	0
8	10887367	Canada	0	0	19	131	0	260569	0	0	3	10337	0	10327	0	0	0	57098	0	6	38	0	2151	0	6	0	0	0	0	0	0	1	7200	200	0	0	0	0
9	34	North_x0020_America_x0020__x0028_other_x0029_	0	0	0	0	0	0	0	0	0	0	0	0	0	0	0	0	0	0	0	0	0	0	0	0	0	0	0	0	0	0	0	0	0	0	0	0
10	76240068	European_x0020_Union	4	0	212	26	0	2796	0	57	11	0	9908	5597	270105	56262	5	3	4533	211269	854	0	1363	8	2	0	124	158	21	497	0	57874	811	57892	7	0	0	0
11	10712703	Eastern_x0020_Europe_x0020__x0028_non_x002D_EU_x0029_	0	0	0	0	0	35733	0	0	0	388619	0	0	8666	0	10	0	363745	237105	0	0	0	0	0	0	545	0	0	0	0	23892	0	34596	0	0	0	0
12	31300	Northern_x0020_Europe_x0020__x0028_non_x002D_EU_x0029_	0	0	0	0	0	0	0	0	0	12	0	0	0	0	0	0	0	0	0	0	0	0	0	0	0	0	0	0	0	0	0	0	0	0	0	0
13	10471833	Southern_x0020_Europe_x0020__x0028_non_x002D_EU_x0029_	0	0	0	0	0	0	0	0	0	108141	521	0	0	197	40	61	1846	339	0	0	0	0	0	0	0	0	0	0	0	0	0	0	20	0	0	0
15	237783	Switzerland	0	0	0	0	0	0	2	0	0	203	0	0	0	0	0	0	0	0	0	0	0	0	0	0	0	0	0	0	0	0	0	0	0	0	0	0
17	1195207	Central_x0020_Asia	0	0	0	0	0	0	0	0	0	0	0	0	0	0	0	0	10483	0	0	0	0	0	0	0	0	0	0	0	0	0	0	0	0	0	0	0
18	3351957	Iran	0	0	0	0	0	0	0	0	0	0	0	0	0	0	0	0	0	0	0	0	0	0	0	0	0	0	0	0	0	0	0	0	0	0	0	0
19	3974414	Russia	0	0	0	0	0	0	0	0	0	20	159	0	0	0	51	0	0	19332	0	0	0	0	0	0	0	0	0	0	0	0	0	0	0	0	0	0
20	10655338	Western_x0020_Asia	0	0	0	16	0	3	0	0	0	7933	0	2	218	1	0	0	0	0	0	0	31	0	0	0	0	1	0	0	0	31	0	1	1	0	0	0
21	270350992	China	0	0	0	0	0	0	0	0	0	0	0	0	0	0	0	0	16074	0	0	2715356	1193240	0	543654	300	0	0	8000	0	0	0	0	0	0	0	0	0
22	11122285	Korea	0	0	0	0	0	3	0	0	0	2	0	0	0	0	0	0	0	0	94	0	11	0	8	0	0	0	0	0	0	0	0	0	0	0	0	0
24	16544869	Japan	0	0	0	0	0	0	0	0	0	0	0	0	0	0	0	0	0	0	48	0	0	0	0	0	0	0	0	0	0	0	0	0	0	0	0	0
25	14173085	India	0	0	0	0	118	36	0	1	0	259	0	0	0	1	0	0	0	75945	26974	130066	2400	0	439993	382013	24344	0	0	1	0	0	0	1	14	0	0	0
26	28148754	South_x002D_Eastern_x0020_Asia	1	0	980	0	0	12	20	0	0	0	0	0	0	0	0	0	0	0	140414	263695	8679	0	0	1079	7	0	0	0	0	0	0	0	0	45	0	0
27	5540670	Southern_x0020_Asia_x0020__x0028_other_x0029_	0	0	0	0	0	0	0	0	0	0	0	0	0	0	0	0	0	2	0	0	0	0	0	0	0	0	0	0	0	0	0	0	0	0	0	0
28	18295468	Eastern_x0020_Africa	0	0	0	86	0	45	0	0	0	447	0	0	0	40	0	0	0	2012	0	0	0	0	0	0	0	7767	7904	0	0	0	0	4083	0	0	0	0
29	3051945	Middle_x0020_Africa	0	0	0	0	0	0	0	0	0	0	0	0	0	0	0	0	0	0	0	0	0	0	0	0	0	0	0	0	0	0	0	0	0	0	0	0
30	9971958	Southern_x0020_Africa	1	0	403	230	0	0	0	0	0	4615	0	0	0	0	0	0	193	101	0	0	0	0	1978	0	402985	39626	0	1649	0	40	1410	0	10	0	1	0
31	10705264	Western_x0020_Africa	0	0	0	0	0	0	0	0	0	0	0	0	0	0	0	0	0	0	0	0	0	0	0	0	0	76	0	0	0	0	0	0	0	0	0	0
32	1926148	Algeria	0	0	0	0	0	0	0	0	0	0	0	0	0	0	0	0	0	0	0	0	0	0	0	0	0	0	0	0	0	0	0	0	0	0	0	0
33	10078058	Egypt	0	0	0	0	0	0	0	0	0	307	0	0	0	0	0	0	0	703	0	0	0	0	0	6	0	0	0	0	0	0	0	538	0	0	0	0
34	1434132	Morocco	0	0	0	0	0	0	0	0	0	0	0	0	0	0	0	0	0	0	0	0	0	0	0	0	0	0	0	0	0	0	0	0	0	0	0	0
35	1075323	Northern_x0020_Africa_x0020__x0028_other_x0029_	0	0	0	0	0	0	0	0	0	0	0	0	0	0	0	0	0	140	0	0	0	0	0	0	0	0	0	0	0	0	0	0	0	0	0	0
36	566497	Australia_x0020_and_x0020_New_x0020_Zealand	4	0	2	0	0	69	0	0	0	472	0	0	0	21	0	0	0	460	162	2108	1725	0	2556	151	7	0	28	0	0	0	0	54	0	0	1075	541
37	143	Micronesia	0	0	0	0	0	0	0	0	0	0	0	0	0	0	0	0	0	0	0	0	0	0	0	0	0	0	0	0	0	0	0	0	0	0	0	0
38	14136	Melanesia	0	0	0	0	0	0	0	0	0	0	0	0	0	0	0	0	0	0	0	0	0	0	0	0	0	0	0	0	0	0	0	0	0	0	0	4
39	5173	Polynesia	0	0	0	0	0	0	0	0	0	0	0	0	0	0	0	0	0	0	0	0	0	0	0	0	0	0	0	0	0	0	0	0	0	0	0	0
